<?xml version="1.0" encoding="utf-8"?>
<!-- Generator: Adobe Illustrator 19.0.0, SVG Export Plug-In . SVG Version: 6.00 Build 0)  -->
<svg version="1.1" id="Capa_1" xmlns="http://www.w3.org/2000/svg" xmlns:xlink="http://www.w3.org/1999/xlink" x="0px" y="0px"
	 viewBox="-49 141 512 512" style="enable-background:new -49 141 512 512;" xml:space="preserve">
<style type="text/css">
	.st0{fill:#FFFFFF;}
</style>
<g>
	<path id="LinkedIn" class="st0" d="M463,452.3v189.3H353.3V465c0-44.4-15.9-74.6-55.6-74.6c-30.3,0-48.4,20.4-56.3,40.1
		c-2.9,7.1-3.6,16.9-3.6,26.8v184.4H127.9c0,0,1.5-299.1,0-330.1h109.8v46.8c-0.2,0.3-0.5,0.7-0.7,1.1h0.7v-1.1
		c14.6-22.5,40.6-54.5,98.9-54.5C408.9,303.8,463,350.9,463,452.3z M13.1,152.4c-37.6,0-62.1,24.6-62.1,57
		c0,31.7,23.9,57.1,60.7,57.1h0.7c38.3,0,62.1-25.4,62.1-57.1C73.8,177,50.7,152.4,13.1,152.4z M-42.5,641.6H67.3V311.5H-42.5V641.6
		z"/>
</g>
</svg>
