<svg width="500" height="500" xmlns="http://www.w3.org/2000/svg" xmlns:svg="http://www.w3.org/2000/svg" xmlns:xlink="http://www.w3.org/1999/xlink">
 <style type="text/css">.st0{fill:#FFFFFF;}</style>
 <defs>
  <symbol viewBox="0 0 500 500" height="500px" width="500px" y="0px" x="0px" id="svg_4" xmlns:xlink="http://www.w3.org/1999/xlink" xmlns="http://www.w3.org/2000/svg">
   <style type="text/css">.st0{fill:#FFFFFF;}</style>
   <polygon points="85.8,13 188.1,13 418.2,242.1 304.2,242.1 " class="st0"/>
   <polygon points="304.2,254.9 418.2,254.9 189.1,486.2 85.8,486.2 " class="st0"/>
  </symbol>
 </defs>
 <g>
  <title>Layer 1</title>
  <path id="svg_1" d="m85.8,13l102.3,0l230.1,229.1l-114,0" stroke-linecap="null" stroke-linejoin="null" stroke-dasharray="null" stroke-width="null" fill="#38b978"/>
  <path id="svg_2" d="m304.2,254.9l114,0l-229.1,231.3l-103.3,0" stroke-linecap="null" stroke-linejoin="null" stroke-dasharray="null" stroke-width="null" fill="#38b978"/>
  <use x="0" y="0" transform="matrix(0.3333333432674408,0,0,0.3333333432674408,0,0) " xlink:href="#svg_4" id="svg_5"/>
  <g id="svg_6"/>
 </g>
</svg>