<?xml version="1.0"?>
<svg xmlns="http://www.w3.org/2000/svg" xmlns:xlink="http://www.w3.org/1999/xlink" class="" id="Capa_1" style="enable-background:new 0 0 456.795 456.795;" viewBox="0 0 456.795 456.795" x="0px" y="0px" width="512px" height="512px" version="1.1" xml:space="preserve"><g><g>
	<g>
		<path class="active-path" d="M 448.947 218.475 c -0.922 -1.168 -23.055 -28.933 -61 -56.81 c -50.705 -37.253 -105.877 -56.944 -159.551 -56.944 c -53.672 0 -108.844 19.691 -159.551 56.944 c -37.944 27.876 -60.077 55.642 -61 56.81 L 0 228.397 l 7.846 9.923 c 0.923 1.168 23.056 28.934 61 56.811 c 50.707 37.252 105.879 56.943 159.551 56.943 c 53.673 0 108.845 -19.691 159.55 -56.943 c 37.945 -27.877 60.078 -55.643 61 -56.811 l 7.848 -9.923 L 448.947 218.475 Z M 228.396 315.039 c -47.774 0 -86.642 -38.867 -86.642 -86.642 c 0 -7.485 0.954 -14.751 2.747 -21.684 l -19.781 -3.329 c -1.938 8.025 -2.966 16.401 -2.966 25.013 c 0 30.86 13.182 58.696 34.204 78.187 c -27.061 -9.996 -50.072 -24.023 -67.439 -36.709 c -21.516 -15.715 -37.641 -31.609 -46.834 -41.478 c 9.197 -9.872 25.32 -25.764 46.834 -41.478 c 17.367 -12.686 40.379 -26.713 67.439 -36.71 l 13.27 14.958 c 15.498 -14.512 36.312 -23.412 59.168 -23.412 c 47.774 0 86.641 38.867 86.641 86.642 C 315.037 276.172 276.17 315.039 228.396 315.039 Z M 368.273 269.875 c -17.369 12.686 -40.379 26.713 -67.439 36.709 c 21.021 -19.49 34.203 -47.326 34.203 -78.188 s -13.182 -58.697 -34.203 -78.188 c 27.061 9.997 50.07 24.024 67.439 36.71 c 21.516 15.715 37.641 31.609 46.834 41.477 C 405.91 238.269 389.787 254.162 368.273 269.875 Z" data-original="#000000" data-old_color="#38b978" fill="#38b978"/>
		<path class="active-path" d="M 173.261 211.555 c -1.626 5.329 -2.507 10.982 -2.507 16.843 c 0 31.834 25.807 57.642 57.642 57.642 c 31.834 0 57.641 -25.807 57.641 -57.642 s -25.807 -57.642 -57.641 -57.642 c -15.506 0 -29.571 6.134 -39.932 16.094 l 28.432 32.048 L 173.261 211.555 Z" data-original="#000000" data-old_color="#38b978" fill="#38b978"/>
	</g>
</g></g> </svg>
